{
  "total": 13,
  "previous": null,
  "next": "https://staging.reelio.com/api/v3/brands/?limit=10&offset=10",
  "from": 1,
  "to": 10,
  "limit": 10,
  "context": {
    "account": {
      "id": 162621,
      "global_roles": ["account-manager"],
      "class_name": "account",
      "created": "2017-02-22T18:53:27.145735Z",
      "modified": "2017-03-28T21:26:03.741566Z",
      "name": "gabriel",
      "slug": "gabriel-14",
      "image": "https://reelio-asset.s3.amazonaws.com/TEST/1490736356093_gabriel-14.jpg",
      "is_active": true,
      "deleted": null,
      "permissions": 67
    }
  },
  "results": [{
    "id": 162622,
    "enterprise_details": {
      "banner_image": "https://reelio-asset.s3.amazonaws.com/1462225533992_infomanagerreeliolabscom.jpg",
      "description": null
    },
    "thumbnail": "https://reelio-asset.s3.amazonaws.com/TEST/9005711462682677/pokeball_icon_0.jpg",
    "roles": ["managed"],
    "annotations": {
      "verticals": ["Auto/Vehicle", "Beauty", "Comedy"],
      "keywords": ["Father", "Exercise", "Documentary"]
    },
    "campaign_count": 5,
    "draft_campaign_count": 0,
    "active_campaign_count": 1,
    "deleted_campaign_count": 0,
    "latest_event_dtime": "2017-04-13T19:36:42.917859Z",
    "default_monetarydevice": "managed-brand-stripe",
    "approved_for_invoicing": false,
    "class_name": "brand",
    "created": "2017-02-22T18:53:54.554152Z",
    "name": "Pokemon Red",
    "slug": "managed-brand-2",
    "is_active": true,
    "deleted": null,
    "permissions": {
      "can_delete": false,
      "can_manage_payment_info": false,
      "can_manage_campaign_permissions": false,
      "can_manage_invites": false,
      "can_modify_settings": false,
      "can_send_messages": false,
      "can_manage_campaigns": false,
      "can_message_creators": false,
      "can_create_search_campaigns": false,
      "can_view_messages": false
    },
    "enterpriseassociation": {
      "id": 5484,
      "created": "2017-02-22T18:53:54.592116Z",
      "exclusive": false,
      "enterprise": {
        "id": 59112,
        "class_name": "enterprise",
        "created": "2016-04-30T03:59:17.650629Z",
        "name": "reelio enterprise",
        "slug": "reelio-enterprise",
        "is_active": true,
        "deleted": null,
        "permissions": 16383
      }
    },
    "branddetails": null,
    "adminstatus": {
      "id": 34273,
      "created": "2017-02-22T18:53:54.576086Z",
      "is_active": true,
      "status": "Normal"
    },
    "profile": {
      "id": 50461,
      "created": "2017-02-22T19:01:40.287853Z",
      "name": null,
      "additional_names": null,
      "contact_email": null,
      "description": "Pomfret is a town in Chautauqua County, New York, United States. The population was 14,965 at the 2010 census. The town lies in the north-central part of the county, south of Dunkirk, and includes the village of Fredonia.",
      "homepage_url": null,
      "banner_image": "",
      "thumbnail": "",
      "url": "https://en.wikipedia.org/wiki/Pomfret,_New_York",
      "featured_media": "https://www.youtube.com/channel/UC80plZ2umGMIvYiRHkzNDWQ",
      "birth_date": null
    },
    "businesscomponents": [],
    "autocommspreference": []
  }, {
    "id": 162698,
    "enterprise_details": {
      "banner_image": "https://reelio-asset.s3.amazonaws.com/1462225533992_infomanagerreeliolabscom.jpg",
      "description": null
    },
    "thumbnail": "https://reelio-asset.s3.amazonaws.com/TEST/9005711452038756/157_typhlosion.jpg",
    "roles": ["agent"],
    "annotations": {
      "verticals": ["Game Show", "Lifestyle", "Talk Show"],
      "keywords": ["First Person"]
    },
    "campaign_count": 11,
    "draft_campaign_count": 0,
    "active_campaign_count": 1,
    "deleted_campaign_count": 1,
    "latest_event_dtime": "2017-02-23T19:11:08.498522Z",
    "default_monetarydevice": "---",
    "approved_for_invoicing": false,
    "class_name": "brand",
    "created": "2017-02-22T22:31:50.246871Z",
    "name": "Pokemon Blue",
    "slug": "pokemon-blue",
    "is_active": true,
    "deleted": null,
    "permissions": {
      "can_delete": false,
      "can_manage_payment_info": true,
      "can_manage_campaign_permissions": true,
      "can_manage_invites": false,
      "can_modify_settings": false,
      "can_send_messages": true,
      "can_manage_campaigns": true,
      "can_message_creators": true,
      "can_create_search_campaigns": true,
      "can_view_messages": true
    },
    "enterpriseassociation": {
      "id": 5489,
      "created": "2017-02-22T22:31:50.289691Z",
      "exclusive": false,
      "enterprise": {
        "id": 59112,
        "class_name": "enterprise",
        "created": "2016-04-30T03:59:17.650629Z",
        "name": "reelio enterprise",
        "slug": "reelio-enterprise",
        "is_active": true,
        "deleted": null,
        "permissions": 16383
      }
    },
    "branddetails": null,
    "adminstatus": {
      "id": 34280,
      "created": "2017-02-22T22:31:50.252146Z",
      "is_active": true,
      "status": "Normal"
    },
    "profile": {
      "id": 50466,
      "created": "2017-02-22T22:31:50.286383Z",
      "name": null,
      "additional_names": null,
      "contact_email": null,
      "description": "Typhlosion is a badger-like Pok\u00e9mon with a bulky yet agile body. Typhlosion is classified as a quadruped, but it is capable of bipedal movement and is frequently depicted standing on its hind legs. When its mouth is open, it shows its thick tongue and sharp canines. It has a short snout and small eyes and ears. Typhlosion's face, underside, arms, and legs are a shade of cream, and its back is dark blue. On Typhlosion\u2019s rear, there is a spiky, coarse fringe of fur.",
      "homepage_url": null,
      "banner_image": "",
      "thumbnail": "",
      "url": "http://bulbapedia.bulbagarden.net/wiki/Typhlosion_(Pok%C3%A9mon)",
      "featured_media": "https://www.youtube.com/channel/UC80plZ2umGMIvYiRHkzNDWQ",
      "birth_date": null
    },
    "businesscomponents": [],
    "autocommspreference": []
  }, {
    "id": 162974,
    "enterprise_details": {
      "banner_image": "https://reelio-asset.s3.amazonaws.com/1462225533992_infomanagerreeliolabscom.jpg",
      "description": null
    },
    "thumbnail": "https://reelio-asset.s3.amazonaws.com/TEST/9005711041407158/maxresdefault.jpg",
    "roles": ["agent"],
    "annotations": {
      "verticals": ["Auto/Vehicle", "How-To/DIY", "Video Games"],
      "keywords": ["Accessories", "Family", "First Person", "Global"]
    },
    "campaign_count": 123,
    "draft_campaign_count": 0,
    "active_campaign_count": 2,
    "deleted_campaign_count": 0,
    "latest_event_dtime": "2017-04-19T14:06:16.119124Z",
    "default_monetarydevice": "pokemon-gold-stripe",
    "approved_for_invoicing": false,
    "class_name": "brand",
    "created": "2017-02-27T16:35:44.538404Z",
    "name": "Pokemon Gold",
    "slug": "pokemon-gold",
    "is_active": true,
    "deleted": null,
    "permissions": {
      "can_delete": false,
      "can_manage_payment_info": true,
      "can_manage_campaign_permissions": true,
      "can_manage_invites": false,
      "can_modify_settings": false,
      "can_send_messages": true,
      "can_manage_campaigns": true,
      "can_message_creators": true,
      "can_create_search_campaigns": true,
      "can_view_messages": true
    },
    "enterpriseassociation": {
      "id": 5532,
      "created": "2017-02-27T16:35:44.603471Z",
      "exclusive": false,
      "enterprise": {
        "id": 59112,
        "class_name": "enterprise",
        "created": "2016-04-30T03:59:17.650629Z",
        "name": "reelio enterprise",
        "slug": "reelio-enterprise",
        "is_active": true,
        "deleted": null,
        "permissions": 16383
      }
    },
    "branddetails": null,
    "adminstatus": {
      "id": 34349,
      "created": "2017-02-27T16:35:44.543727Z",
      "is_active": true,
      "status": "Normal"
    },
    "profile": {
      "id": 50519,
      "created": "2017-02-27T16:35:44.600190Z",
      "name": null,
      "additional_names": null,
      "contact_email": null,
      "description": "Pok\u00e9mon Gold Version (Japanese: \u30dd\u30b1\u30c3\u30c8\u30e2\u30f3\u30b9\u30bf\u30fc\u3000\u91d1 Pocket Monsters: Gold) and Pok\u00e9mon Silver Version (Japanese: \u30dd\u30b1\u30c3\u30c8\u30e2\u30f3\u30b9\u30bf\u30fc\u3000\u9280 Pocket Monsters: Silver) were the first core series games of Generation II for the Game Boy Color.",
      "homepage_url": null,
      "banner_image": "",
      "thumbnail": "",
      "url": "http://bulbapedia.bulbagarden.net/wiki/Pok%C3%A9mon_Gold_and_Silver_Versions",
      "featured_media": "https://www.youtube.com/channel/UC80plZ2umGMIvYiRHkzNDWQ",
      "birth_date": null
    },
    "businesscomponents": [],
    "autocommspreference": []
  }, {
    "id": 163148,
    "enterprise_details": {
      "banner_image": "https://reelio-asset.s3.amazonaws.com/1462225533992_infomanagerreeliolabscom.jpg",
      "description": null
    },
    "thumbnail": "https://reelio-asset.s3.amazonaws.com/TEST/9005710867549106/250_px_249_lugia.jpg",
    "roles": ["agent"],
    "annotations": {
      "verticals": ["Auto/Vehicle", "News", "Talk Show"],
      "keywords": ["Father"]
    },
    "campaign_count": 8,
    "draft_campaign_count": 0,
    "active_campaign_count": 1,
    "deleted_campaign_count": 0,
    "latest_event_dtime": "2017-03-03T23:04:05.008799Z",
    "default_monetarydevice": "pokemon-silver-stripe",
    "approved_for_invoicing": false,
    "class_name": "brand",
    "created": "2017-03-01T16:52:53.305631Z",
    "name": "Pokemon Silver",
    "slug": "pokemon-silver",
    "is_active": true,
    "deleted": null,
    "permissions": {
      "can_delete": false,
      "can_manage_payment_info": true,
      "can_manage_campaign_permissions": true,
      "can_manage_invites": false,
      "can_modify_settings": false,
      "can_send_messages": true,
      "can_manage_campaigns": true,
      "can_message_creators": true,
      "can_create_search_campaigns": true,
      "can_view_messages": true
    },
    "enterpriseassociation": {
      "id": 5555,
      "created": "2017-03-01T16:52:53.348519Z",
      "exclusive": false,
      "enterprise": {
        "id": 59112,
        "class_name": "enterprise",
        "created": "2016-04-30T03:59:17.650629Z",
        "name": "reelio enterprise",
        "slug": "reelio-enterprise",
        "is_active": true,
        "deleted": null,
        "permissions": 16383
      }
    },
    "branddetails": null,
    "adminstatus": {
      "id": 34385,
      "created": "2017-03-01T16:52:53.310664Z",
      "is_active": true,
      "status": "Normal"
    },
    "profile": {
      "id": 50544,
      "created": "2017-03-01T16:52:53.344484Z",
      "name": null,
      "additional_names": null,
      "contact_email": null,
      "description": "The games introduce 100 new species of Pok\u00e9mon, and follow the progress of the central character, whose name the player may choose, in his quest to master Pok\u00e9mon battling. Both games are independent of each other but feature largely the same plot and, while both can be played separately, it is necessary to trade between them and their backward compatible predecessors in order to fully complete the games' Pok\u00e9dexes. The Johto Saga of the Pok\u00e9mon anime is based on the new region introduced in the",
      "homepage_url": null,
      "banner_image": "",
      "thumbnail": "",
      "url": "",
      "featured_media": "",
      "birth_date": null
    },
    "businesscomponents": [],
    "autocommspreference": []
  }, {
    "id": 163412,
    "enterprise_details": {
      "banner_image": "https://reelio-asset.s3.amazonaws.com/1462225533992_infomanagerreeliolabscom.jpg",
      "description": null
    },
    "thumbnail": "https://reelio-asset.s3.amazonaws.com/TEST/9005710779754795/maxresdefault_2.jpg",
    "roles": ["agent"],
    "annotations": {
      "verticals": ["Video Games", "Sports", "Talk Show"],
      "keywords": ["Go Pro", "Family", "Father"]
    },
    "campaign_count": 1,
    "draft_campaign_count": 0,
    "active_campaign_count": 1,
    "deleted_campaign_count": 0,
    "latest_event_dtime": "2017-03-02T17:19:04.939603Z",
    "default_monetarydevice": "pokemon-ruby-stripe",
    "approved_for_invoicing": false,
    "class_name": "brand",
    "created": "2017-03-02T17:16:10.903704Z",
    "name": "Pokemon Ruby",
    "slug": "pokemon-ruby",
    "is_active": true,
    "deleted": null,
    "permissions": {
      "can_delete": false,
      "can_manage_payment_info": true,
      "can_manage_campaign_permissions": true,
      "can_manage_invites": false,
      "can_modify_settings": false,
      "can_send_messages": true,
      "can_manage_campaigns": true,
      "can_message_creators": true,
      "can_create_search_campaigns": true,
      "can_view_messages": true
    },
    "enterpriseassociation": {
      "id": 5585,
      "created": "2017-03-02T17:16:10.969097Z",
      "exclusive": false,
      "enterprise": {
        "id": 59112,
        "class_name": "enterprise",
        "created": "2016-04-30T03:59:17.650629Z",
        "name": "reelio enterprise",
        "slug": "reelio-enterprise",
        "is_active": true,
        "deleted": null,
        "permissions": 16383
      }
    },
    "branddetails": null,
    "adminstatus": {
      "id": 34446,
      "created": "2017-03-02T17:16:10.909566Z",
      "is_active": true,
      "status": "Normal"
    },
    "profile": {
      "id": 50589,
      "created": "2017-03-02T17:16:10.965881Z",
      "name": null,
      "additional_names": null,
      "contact_email": null,
      "description": "The most prominent change in the battle mechanics is the introduction of double battles, in which the opposing parties each use two Pok\u00e9mon at the same time. Consequently, certain Pok\u00e9mon moves can affect multiple combatants at once.[7] Multi battles were added alongside double battles. They are identical to double battle, but there are two trainers to a side, each controlling one of the two Pok\u00e9mon sent out. Also new to the games are innate abilities and natures; the former is shared by every",
      "homepage_url": null,
      "banner_image": "",
      "thumbnail": "",
      "url": "https://en.wikipedia.org/wiki/Pok%C3%A9mon_Ruby_and_Sapphire",
      "featured_media": "https://www.youtube.com/channel/UC80plZ2umGMIvYiRHkzNDWQ",
      "birth_date": null
    },
    "businesscomponents": [],
    "autocommspreference": []
  }, {
    "id": 163467,
    "enterprise_details": {
      "banner_image": "https://reelio-asset.s3.amazonaws.com/1462225533992_infomanagerreeliolabscom.jpg",
      "description": null
    },
    "thumbnail": "https://reelio-asset.s3.amazonaws.com/TEST/9005710776572036/si_gba_pokemon_sapphire_en_gb.jpg",
    "roles": ["agent"],
    "annotations": {
      "verticals": ["Sports", "How-To/DIY", "Beauty"],
      "keywords": ["Fashion"]
    },
    "campaign_count": 5,
    "draft_campaign_count": 1,
    "active_campaign_count": 1,
    "deleted_campaign_count": 1,
    "latest_event_dtime": "2017-03-06T14:36:48.409939Z",
    "default_monetarydevice": "---",
    "approved_for_invoicing": false,
    "class_name": "brand",
    "created": "2017-03-02T18:08:16.185518Z",
    "name": "Pokemon Sapphire",
    "slug": "pokemon-sapphire",
    "is_active": true,
    "deleted": null,
    "permissions": {
      "can_delete": false,
      "can_manage_payment_info": true,
      "can_manage_campaign_permissions": true,
      "can_manage_invites": false,
      "can_modify_settings": false,
      "can_send_messages": true,
      "can_manage_campaigns": true,
      "can_message_creators": true,
      "can_create_search_campaigns": true,
      "can_view_messages": true
    },
    "enterpriseassociation": {
      "id": 5588,
      "created": "2017-03-02T18:08:16.227639Z",
      "exclusive": false,
      "enterprise": {
        "id": 59112,
        "class_name": "enterprise",
        "created": "2016-04-30T03:59:17.650629Z",
        "name": "reelio enterprise",
        "slug": "reelio-enterprise",
        "is_active": true,
        "deleted": null,
        "permissions": 16383
      }
    },
    "branddetails": null,
    "adminstatus": {
      "id": 34468,
      "created": "2017-03-02T18:08:16.190495Z",
      "is_active": true,
      "status": "Normal"
    },
    "profile": {
      "id": 50605,
      "created": "2017-03-02T18:08:16.224582Z",
      "name": null,
      "additional_names": null,
      "contact_email": null,
      "description": "asdfasdfasdfasdf",
      "homepage_url": null,
      "banner_image": "",
      "thumbnail": "",
      "url": "https://en.wikipedia.org/wiki/Pok%C3%A9mon_Ruby_and_Sapphire",
      "featured_media": "https://www.youtube.com/channel/UC80plZ2umGMIvYiRHkzNDWQ",
      "birth_date": null
    },
    "businesscomponents": [],
    "autocommspreference": []
  }, {
    "id": 163726,
    "enterprise_details": {
      "banner_image": "https://reelio-asset.s3.amazonaws.com/1462225533992_infomanagerreeliolabscom.jpg",
      "description": null
    },
    "thumbnail": "https://reelio-asset.s3.amazonaws.com/TEST/9005710341325998/catch_kyogre_in_pokemon_emerald_step_16.jpg",
    "roles": ["agent"],
    "annotations": {
      "verticals": ["Video Games"],
      "keywords": ["Device/Gadget"]
    },
    "campaign_count": 82,
    "draft_campaign_count": 0,
    "active_campaign_count": 4,
    "deleted_campaign_count": 0,
    "latest_event_dtime": "2017-04-07T19:59:54.666547Z",
    "default_monetarydevice": "pokemon-emerald-stripe",
    "approved_for_invoicing": false,
    "class_name": "brand",
    "created": "2017-03-07T19:03:20.853037Z",
    "name": "Pokemon Emerald",
    "slug": "pokemon-emerald",
    "is_active": true,
    "deleted": null,
    "permissions": {
      "can_delete": false,
      "can_manage_payment_info": true,
      "can_manage_campaign_permissions": true,
      "can_manage_invites": false,
      "can_modify_settings": false,
      "can_send_messages": true,
      "can_manage_campaigns": true,
      "can_message_creators": true,
      "can_create_search_campaigns": true,
      "can_view_messages": true
    },
    "enterpriseassociation": {
      "id": 5638,
      "created": "2017-03-07T19:03:20.883874Z",
      "exclusive": false,
      "enterprise": {
        "id": 59112,
        "class_name": "enterprise",
        "created": "2016-04-30T03:59:17.650629Z",
        "name": "reelio enterprise",
        "slug": "reelio-enterprise",
        "is_active": true,
        "deleted": null,
        "permissions": 16383
      }
    },
    "branddetails": null,
    "adminstatus": {
      "id": 34536,
      "created": "2017-03-07T19:03:20.858518Z",
      "is_active": true,
      "status": "Normal"
    },
    "profile": {
      "id": 50668,
      "created": "2017-03-07T19:03:20.880687Z",
      "name": null,
      "additional_names": null,
      "contact_email": null,
      "description": "Pok\u00e9mon Emerald (\u30dd\u30b1\u30c3\u30c8\u30e2\u30f3\u30b9\u30bf\u30fc\u3000\u30a8\u30e1\u30e9\u30eb\u30c9 Poketto Monsut\u0101 Emerarudo,?, \"Pocket Monsters Emerald\"), is a role-playing video game developed by Game Freak and published by Nintendo for the Game Boy Advance handheld video game console. It was first released in Japan on September 16, 2004, and was later released in North America, Australia, and Europe. It is an enhanced version of Pok\u00e9mon Ruby and Sapphire, and is part of the third generation of the Pok\u00e9mon video game series.",
      "homepage_url": null,
      "banner_image": "",
      "thumbnail": "",
      "url": "https://en.wikipedia.org/wiki/Pok%C3%A9mon_Emerald",
      "featured_media": "https://en.wikipedia.org/wiki/Pok%C3%A9mon_Emerald",
      "birth_date": null
    },
    "businesscomponents": [],
    "autocommspreference": []
  }, {
    "id": 164847,
    "enterprise_details": {
      "banner_image": "https://reelio-asset.s3.amazonaws.com/1462225533992_infomanagerreeliolabscom.jpg",
      "description": null
    },
    "thumbnail": "https://reelio-alphabet-icons.s3.amazonaws.com/p.png",
    "roles": ["agent"],
    "annotations": {},
    "campaign_count": 47,
    "draft_campaign_count": 0,
    "active_campaign_count": 1,
    "deleted_campaign_count": 0,
    "latest_event_dtime": "2017-03-22T20:39:58.918394Z",
    "default_monetarydevice": "pokemon-dirt-invoice-account-2",
    "approved_for_invoicing": true,
    "class_name": "brand",
    "created": "2017-03-16T17:50:47.497113Z",
    "name": "Pokemon DIRT",
    "slug": "pokemon-dirt",
    "is_active": true,
    "deleted": null,
    "permissions": {
      "can_delete": false,
      "can_manage_payment_info": true,
      "can_manage_campaign_permissions": true,
      "can_manage_invites": false,
      "can_modify_settings": false,
      "can_send_messages": true,
      "can_manage_campaigns": true,
      "can_message_creators": true,
      "can_create_search_campaigns": true,
      "can_view_messages": true
    },
    "enterpriseassociation": {
      "id": 5776,
      "created": "2017-03-16T17:50:47.507844Z",
      "exclusive": false,
      "enterprise": {
        "id": 59112,
        "class_name": "enterprise",
        "created": "2016-04-30T03:59:17.650629Z",
        "name": "reelio enterprise",
        "slug": "reelio-enterprise",
        "is_active": true,
        "deleted": null,
        "permissions": 16383
      }
    },
    "branddetails": null,
    "adminstatus": {
      "id": 34776,
      "created": "2017-03-16T17:50:47.502619Z",
      "is_active": true,
      "status": "Normal"
    },
    "profile": {
      "id": 50883,
      "created": "2017-03-16T17:50:47.504476Z",
      "name": null,
      "additional_names": null,
      "contact_email": null,
      "description": "Did I Really Try?",
      "homepage_url": null,
      "banner_image": "",
      "thumbnail": "",
      "url": "",
      "featured_media": "",
      "birth_date": null
    },
    "businesscomponents": [],
    "autocommspreference": []
  }, {
    "id": 165322,
    "enterprise_details": {
      "banner_image": "https://reelio-asset.s3.amazonaws.com/1462225533992_infomanagerreeliolabscom.jpg",
      "description": null
    },
    "thumbnail": "https://reelio-asset.s3.amazonaws.com/TEST/9005708531442727/lizard_8.jpg",
    "roles": ["agent"],
    "annotations": {
      "verticals": ["News", "Sports"]
    },
    "campaign_count": 17,
    "draft_campaign_count": 1,
    "active_campaign_count": 1,
    "deleted_campaign_count": 1,
    "latest_event_dtime": "2017-03-28T20:36:37.866086Z",
    "default_monetarydevice": "not-a-pokemon-invoice-account",
    "approved_for_invoicing": true,
    "class_name": "brand",
    "created": "2017-03-28T17:48:24.181046Z",
    "name": "Not a Pokemon",
    "slug": "not-a-pokemon",
    "is_active": true,
    "deleted": null,
    "permissions": {
      "can_delete": false,
      "can_manage_payment_info": true,
      "can_manage_campaign_permissions": true,
      "can_manage_invites": false,
      "can_modify_settings": false,
      "can_send_messages": true,
      "can_manage_campaigns": true,
      "can_message_creators": true,
      "can_create_search_campaigns": true,
      "can_view_messages": true
    },
    "enterpriseassociation": {
      "id": 5826,
      "created": "2017-03-28T17:48:24.267692Z",
      "exclusive": false,
      "enterprise": {
        "id": 59112,
        "class_name": "enterprise",
        "created": "2016-04-30T03:59:17.650629Z",
        "name": "reelio enterprise",
        "slug": "reelio-enterprise",
        "is_active": true,
        "deleted": null,
        "permissions": 16383
      }
    },
    "branddetails": null,
    "adminstatus": {
      "id": 34838,
      "created": "2017-03-28T17:48:24.221205Z",
      "is_active": true,
      "status": "Normal"
    },
    "profile": {
      "id": 50927,
      "created": "2017-03-28T17:48:24.264257Z",
      "name": null,
      "additional_names": null,
      "contact_email": null,
      "description": "hey",
      "homepage_url": null,
      "banner_image": "",
      "thumbnail": "",
      "url": "",
      "featured_media": "",
      "birth_date": null
    },
    "businesscomponents": [],
    "autocommspreference": []
  }, {
    "id": 165599,
    "enterprise_details": {
      "banner_image": "https://reelio-asset.s3.amazonaws.com/1462225533992_infomanagerreeliolabscom.jpg",
      "description": null
    },
    "thumbnail": "https://reelio-asset.s3.amazonaws.com/TEST/1490911967419_gabriel-14.jpg",
    "roles": ["agent"],
    "annotations": {
      "keywords": ["Documentary"],
      "verticals": ["Family"]
    },
    "campaign_count": 1,
    "draft_campaign_count": 0,
    "active_campaign_count": 1,
    "deleted_campaign_count": 0,
    "latest_event_dtime": "2017-03-30T22:15:19.810277Z",
    "default_monetarydevice": "---",
    "approved_for_invoicing": false,
    "class_name": "brand",
    "created": "2017-03-30T22:13:03.525363Z",
    "name": "Pokemon Diamond",
    "slug": "pokemon-diamond",
    "is_active": true,
    "deleted": null,
    "permissions": {
      "can_delete": false,
      "can_manage_payment_info": true,
      "can_manage_campaign_permissions": true,
      "can_manage_invites": false,
      "can_modify_settings": false,
      "can_send_messages": true,
      "can_manage_campaigns": true,
      "can_message_creators": true,
      "can_create_search_campaigns": true,
      "can_view_messages": true
    },
    "enterpriseassociation": {
      "id": 5892,
      "created": "2017-03-30T22:13:03.559808Z",
      "exclusive": false,
      "enterprise": {
        "id": 59112,
        "class_name": "enterprise",
        "created": "2016-04-30T03:59:17.650629Z",
        "name": "reelio enterprise",
        "slug": "reelio-enterprise",
        "is_active": true,
        "deleted": null,
        "permissions": 16383
      }
    },
    "branddetails": {
      "id": 313,
      "created": "2017-03-30T22:13:03.541630Z",
      "name": null,
      "additional_names": null,
      "contact_email": null,
      "description": null,
      "homepage_url": null,
      "banner_image": "",
      "thumbnail": "",
      "ein": ""
    },
    "adminstatus": {
      "id": 34900,
      "created": "2017-03-30T22:13:03.538651Z",
      "is_active": true,
      "status": "Normal"
    },
    "profile": {
      "id": 50969,
      "created": "2017-03-30T22:13:03.540347Z",
      "name": null,
      "additional_names": null,
      "contact_email": null,
      "description": "pokemon diamond",
      "homepage_url": null,
      "banner_image": "",
      "thumbnail": "",
      "url": "",
      "featured_media": "",
      "birth_date": null
    },
    "businesscomponents": [],
    "autocommspreference": []
  }],
  "ordering_fields": [{
    "field": "latest_event_dtime",
    "label": "latest_event_dtime"
  }, {
    "field": "name",
    "label": "name"
  }, {
    "field": "created",
    "label": "created"
  }]
}
