{"total":2473,"previous":null,"next":"https://staging.reelio.com/api/v3/notifications/?limit=20&offset=20","from":1,"to":20,"limit":20,"context":{"account":{"id":50332,"global_roles":["account-manager"],"class_name":"account","created":"2016-03-16T17:45:11.584Z","modified":"2017-04-03T20:20:29.445Z","name":"Brittany","slug":"brittanyreeliolabscom","image":"https://reelio-asset.s3.amazonaws.com/TEST/9005708535518122/88888_2056_world_w_stars.jpg","is_active":true,"deleted":null,"permissions":99}},"results":[{"id":15672,"conversation_id":166070,"redirect_context":{"conversation_id":166070,"campaigncreator_id":40420,"campaign_slug":"fuzzy-2s-campaign"},"sender":null,"read":false,"messageattachments":[],"tagline":"Offer Accepted","message_type":"success","body":"lamarrwilson accepted the offer.","sent_at":"2017-04-05T21:06:59.546Z","reelio_model":{"id":166070,"class_name":"conversation","created":"2017-04-05T21:06:39.637Z","modified":"2017-04-05T21:06:39.637Z","name":"Fuzzy 2's Campaign<->lamarrwilson","slug":"fuzzy-2s-campaign-lamarrwilson-2","image":null,"is_active":true,"deleted":null,"permissions":3}},{"id":15671,"conversation_id":166070,"redirect_context":{"conversation_id":166070,"campaigncreator_id":40420,"campaign_slug":"fuzzy-2s-campaign"},"sender":null,"read":false,"messageattachments":[],"tagline":"New offer!","message_type":"success","body":"Quick, Fuzzy 2 just sent you an offer! Respond now?","sent_at":"2017-04-05T21:06:39.710Z","reelio_model":{"id":166070,"class_name":"conversation","created":"2017-04-05T21:06:39.637Z","modified":"2017-04-05T21:06:39.637Z","name":"Fuzzy 2's Campaign<->lamarrwilson","slug":"fuzzy-2s-campaign-lamarrwilson-2","image":null,"is_active":true,"deleted":null,"permissions":3}},{"id":15670,"conversation_id":166065,"redirect_context":{"conversation_id":166065,"campaigncreator_id":40371,"campaign_slug":"replicates-campaign"},"sender":null,"read":false,"messageattachments":[],"tagline":"Offer Accepted","message_type":"success","body":"lamarrwilson accepted the offer.","sent_at":"2017-04-05T21:01:13.905Z","reelio_model":{"id":166065,"class_name":"conversation","created":"2017-04-05T21:00:55.573Z","modified":"2017-04-05T21:00:55.573Z","name":"Replicate Campaign<->lamarrwilson","slug":"replicate-campaign-lamarrwilson-2","image":null,"is_active":true,"deleted":null,"permissions":3}},{"id":15669,"conversation_id":166065,"redirect_context":{"conversation_id":166065,"campaigncreator_id":40371,"campaign_slug":"replicates-campaign"},"sender":null,"read":false,"messageattachments":[],"tagline":"New offer!","message_type":"success","body":"Quick, Replicate just sent you an offer! Respond now?","sent_at":"2017-04-05T21:00:55.626Z","reelio_model":{"id":166065,"class_name":"conversation","created":"2017-04-05T21:00:55.573Z","modified":"2017-04-05T21:00:55.573Z","name":"Replicate Campaign<->lamarrwilson","slug":"replicate-campaign-lamarrwilson-2","image":null,"is_active":true,"deleted":null,"permissions":3}},{"id":15668,"conversation_id":166061,"redirect_context":{"conversation_id":166061,"campaigncreator_id":40419,"campaign_slug":"dashlanes-campaign-4"},"sender":null,"read":false,"messageattachments":[],"tagline":"Offer Accepted","message_type":"success","body":"lamarrwilson accepted the offer.","sent_at":"2017-04-05T20:35:58.419Z","reelio_model":{"id":166061,"class_name":"conversation","created":"2017-04-05T20:35:37.896Z","modified":"2017-04-05T20:35:37.896Z","name":"Test1111 Campaign<->lamarrwilson","slug":"test1111-campaign-lamarrwilson-2","image":null,"is_active":true,"deleted":null,"permissions":3}},{"id":15667,"conversation_id":166061,"redirect_context":{"conversation_id":166061,"campaigncreator_id":40419,"campaign_slug":"dashlanes-campaign-4"},"sender":null,"read":false,"messageattachments":[],"tagline":"New offer!","message_type":"success","body":"Quick, Dashlane just sent you an offer! Respond now?","sent_at":"2017-04-05T20:35:37.920Z","reelio_model":{"id":166061,"class_name":"conversation","created":"2017-04-05T20:35:37.896Z","modified":"2017-04-05T20:35:37.896Z","name":"Test1111 Campaign<->lamarrwilson","slug":"test1111-campaign-lamarrwilson-2","image":null,"is_active":true,"deleted":null,"permissions":3}},{"id":15666,"conversation_id":166056,"redirect_context":{"conversation_id":166056,"campaigncreator_id":40418,"campaign_slug":"marley-coffees-campaign-39"},"sender":null,"read":false,"messageattachments":[],"tagline":"Offer Accepted","message_type":"success","body":"lamarrwilson accepted the offer.","sent_at":"2017-04-05T20:27:38.149Z","reelio_model":{"id":166056,"class_name":"conversation","created":"2017-04-05T20:26:59.842Z","modified":"2017-04-05T20:26:59.842Z","name":"040517-1623<->lamarrwilson","slug":"040517-1623-lamarrwilson-2","image":null,"is_active":true,"deleted":null,"permissions":3}},{"id":15665,"conversation_id":166056,"redirect_context":{"conversation_id":166056,"campaigncreator_id":40418,"campaign_slug":"marley-coffees-campaign-39"},"sender":null,"read":false,"messageattachments":[],"tagline":"New offer!","message_type":"success","body":"Quick, Marley Coffee just sent you an offer! Respond now?","sent_at":"2017-04-05T20:26:59.872Z","reelio_model":{"id":166056,"class_name":"conversation","created":"2017-04-05T20:26:59.842Z","modified":"2017-04-05T20:26:59.842Z","name":"040517-1623<->lamarrwilson","slug":"040517-1623-lamarrwilson-2","image":null,"is_active":true,"deleted":null,"permissions":3}},{"id":15664,"conversation_id":166020,"redirect_context":{"conversation_id":166020,"campaigncreator_id":40411,"campaign_slug":"above-averages-campaign"},"sender":null,"read":false,"messageattachments":[],"tagline":"Offer Accepted","message_type":"success","body":"lamarrwilson accepted the offer.","sent_at":"2017-04-05T20:16:08.972Z","reelio_model":{"id":166020,"class_name":"conversation","created":"2017-04-05T15:57:26.524Z","modified":"2017-04-05T15:57:26.524Z","name":"Above Average's Campaign<->lamarrwilson","slug":"above-averages-campaign-lamarrwilson-2","image":null,"is_active":true,"deleted":null,"permissions":3}},{"id":15663,"conversation_id":166046,"redirect_context":{"conversation_id":166046,"campaigncreator_id":40417,"campaign_slug":"adidass-campaign"},"sender":null,"read":false,"messageattachments":[],"tagline":"New offer!","message_type":"success","body":"Quick, Adidas just sent you an offer! Respond now?","sent_at":"2017-04-05T19:59:34.116Z","reelio_model":{"id":166046,"class_name":"conversation","created":"2017-04-05T19:59:34.094Z","modified":"2017-04-05T19:59:34.094Z","name":"Adidas's Campaign Lamar Test<->Pok\u00e9mon TV","slug":"adidass-campaign-lamar-test-pokemon-tv-2","image":null,"is_active":true,"deleted":null,"permissions":3}},{"id":15662,"conversation_id":166043,"redirect_context":{"conversation_id":166043,"campaigncreator_id":40416,"campaign_slug":"adidass-campaign"},"sender":null,"read":false,"messageattachments":[],"tagline":"New offer!","message_type":"success","body":"Quick, Adidas just sent you an offer! Respond now?","sent_at":"2017-04-05T19:54:21.426Z","reelio_model":{"id":166043,"class_name":"conversation","created":"2017-04-05T19:54:21.353Z","modified":"2017-04-05T19:54:21.353Z","name":"Adidas's Campaign Lamar Test<->Hello Internet","slug":"adidass-campaign-lamar-test-hello-internet-2","image":null,"is_active":true,"deleted":null,"permissions":3}},{"id":15661,"conversation_id":166034,"redirect_context":{"conversation_id":166034,"campaigncreator_id":40415,"campaign_slug":"adidass-campaign"},"sender":null,"read":false,"messageattachments":[],"tagline":"Offer Accepted","message_type":"success","body":"PlayOverwatch accepted the offer.","sent_at":"2017-04-05T19:53:02.223Z","reelio_model":{"id":166034,"class_name":"conversation","created":"2017-04-05T18:02:49.137Z","modified":"2017-04-05T18:02:49.137Z","name":"Adidas's Campaign Lamar Test<->PlayOverwatch","slug":"adidass-campaign-lamar-test-playoverwatch-2","image":null,"is_active":true,"deleted":null,"permissions":3}},{"id":15660,"conversation_id":166028,"redirect_context":{"conversation_id":166028,"campaigncreator_id":40413,"campaign_slug":"adidass-campaign"},"sender":null,"read":false,"messageattachments":[],"tagline":"Offer Accepted","message_type":"success","body":"lamarrwilson accepted the offer.","sent_at":"2017-04-05T19:49:55.805Z","reelio_model":{"id":166028,"class_name":"conversation","created":"2017-04-05T17:38:19.106Z","modified":"2017-04-05T17:38:19.106Z","name":"Adidas's Campaign Lamar Test<->lamarrwilson","slug":"adidass-campaign-lamar-test-lamarrwilson-2","image":null,"is_active":true,"deleted":null,"permissions":3}},{"id":15659,"conversation_id":166038,"redirect_context":{"conversation_id":166038,"campaigncreator_id":40283,"campaign_slug":"threadflips-campaign-2"},"sender":null,"read":false,"messageattachments":[],"tagline":"Offer Accepted","message_type":"success","body":"What's Inside? accepted the offer.","sent_at":"2017-04-05T19:39:10.455Z","reelio_model":{"id":166038,"class_name":"conversation","created":"2017-04-05T19:35:30.203Z","modified":"2017-04-05T19:35:30.203Z","name":"Threadflip's Skateboard Campaign<->What's Inside?","slug":"threadflips-skateboard-campaign-whats-inside-2","image":null,"is_active":true,"deleted":null,"permissions":3}},{"id":15658,"conversation_id":166038,"redirect_context":{"conversation_id":166038,"campaigncreator_id":40283,"campaign_slug":"threadflips-campaign-2"},"sender":null,"read":false,"messageattachments":[],"tagline":"New offer!","message_type":"success","body":"Quick, Threadflip just sent you an offer! Respond now?","sent_at":"2017-04-05T19:35:30.225Z","reelio_model":{"id":166038,"class_name":"conversation","created":"2017-04-05T19:35:30.203Z","modified":"2017-04-05T19:35:30.203Z","name":"Threadflip's Skateboard Campaign<->What's Inside?","slug":"threadflips-skateboard-campaign-whats-inside-2","image":null,"is_active":true,"deleted":null,"permissions":3}},{"id":15657,"conversation_id":166034,"redirect_context":{"conversation_id":166034,"campaigncreator_id":40415,"campaign_slug":"adidass-campaign"},"sender":null,"read":false,"messageattachments":[],"tagline":"New offer!","message_type":"success","body":"Quick, Adidas just sent you an offer! Respond now?","sent_at":"2017-04-05T18:02:49.159Z","reelio_model":{"id":166034,"class_name":"conversation","created":"2017-04-05T18:02:49.137Z","modified":"2017-04-05T18:02:49.137Z","name":"Adidas's Campaign Lamar Test<->PlayOverwatch","slug":"adidass-campaign-lamar-test-playoverwatch-2","image":null,"is_active":true,"deleted":null,"permissions":3}},{"id":15653,"conversation_id":166031,"redirect_context":{"conversation_id":166031,"campaigncreator_id":40414,"campaign_slug":"adidass-campaign"},"sender":null,"read":false,"messageattachments":[],"tagline":"New offer!","message_type":"success","body":"Quick, Adidas just sent you an offer! Respond now?","sent_at":"2017-04-05T17:40:39.196Z","reelio_model":{"id":166031,"class_name":"conversation","created":"2017-04-05T17:40:39.165Z","modified":"2017-04-05T17:40:39.165Z","name":"Adidas's Campaign Lamar Test<->The Official Pok\u00e9mon Channel","slug":"adidass-campaign-lamar-test-the-official-pokemon-2","image":null,"is_active":true,"deleted":null,"permissions":3}},{"id":15652,"conversation_id":166028,"redirect_context":{"conversation_id":166028,"campaigncreator_id":40413,"campaign_slug":"adidass-campaign"},"sender":null,"read":false,"messageattachments":[],"tagline":"New offer!","message_type":"success","body":"Quick, Adidas just sent you an offer! Respond now?","sent_at":"2017-04-05T17:38:19.134Z","reelio_model":{"id":166028,"class_name":"conversation","created":"2017-04-05T17:38:19.106Z","modified":"2017-04-05T17:38:19.106Z","name":"Adidas's Campaign Lamar Test<->lamarrwilson","slug":"adidass-campaign-lamar-test-lamarrwilson-2","image":null,"is_active":true,"deleted":null,"permissions":3}},{"id":15651,"conversation_id":166020,"redirect_context":{"conversation_id":166020,"campaigncreator_id":40411,"campaign_slug":"above-averages-campaign"},"sender":null,"read":false,"messageattachments":[],"tagline":"New offer!","message_type":"success","body":"Quick, Above Average just sent you an offer! Respond now?","sent_at":"2017-04-05T15:57:48.404Z","reelio_model":{"id":166020,"class_name":"conversation","created":"2017-04-05T15:57:26.524Z","modified":"2017-04-05T15:57:26.524Z","name":"Above Average's Campaign<->lamarrwilson","slug":"above-averages-campaign-lamarrwilson-2","image":null,"is_active":true,"deleted":null,"permissions":3}},{"id":15650,"conversation_id":166020,"redirect_context":{"conversation_id":166020,"campaigncreator_id":40411,"campaign_slug":"above-averages-campaign"},"sender":null,"read":false,"messageattachments":[],"tagline":"Pitch Sent","message_type":"success","body":"Pitch was successfully submitted from lamarrwilson to Above Average's Campaign.","sent_at":"2017-04-05T15:57:26.547Z","reelio_model":{"id":166020,"class_name":"conversation","created":"2017-04-05T15:57:26.524Z","modified":"2017-04-05T15:57:26.524Z","name":"Above Average's Campaign<->lamarrwilson","slug":"above-averages-campaign-lamarrwilson-2","image":null,"is_active":true,"deleted":null,"permissions":3}}],"unread_count":1195,"ordering_fields":[{"field":"id","label":"Id"},{"field":"created","label":"Created"},{"field":"modified","label":"Modified"},{"field":"reelio_model","label":"Reelio_Model"},{"field":"tagline","label":"Tagline"},{"field":"message_type","label":"Message_Type"},{"field":"body","label":"Body"},{"field":"sender","label":"Sender"},{"field":"sent_at","label":"Sent_At"}]}
