{"total":214,"previous":null,"next":"https://staging.reelio.com/api/v3/annotations/?category=keywords&limit=10&offset=10","from":1,"to":10,"limit":10,"results":[{"id":65,"category":"keywords","content":"Exercise"},{"id":66,"category":"keywords","content":"Extreme"},{"id":67,"category":"keywords","content":"Family"},{"id":68,"category":"keywords","content":"Fantasy"},{"id":69,"category":"keywords","content":"Fashion"},{"id":70,"category":"keywords","content":"Father"},{"id":71,"category":"keywords","content":"First Person"},{"id":72,"category":"keywords","content":"Fitness/Health"},{"id":73,"category":"keywords","content":"Food"},{"id":74,"category":"keywords","content":"Football"}]}
