{
	"total": 22,
	"previous": null,
	"next": "https://staging.reelio.com/api/v3/annotations/?category=verticals&limit=10&offset=10",
	"from": 1,
	"to": 10,
	"limit": 10,
	"results": [{
		"id": 214,
		"category": "verticals",
		"content": "Auto/Vehicle"
	}, {
		"id": 215,
		"category": "verticals",
		"content": "Beauty"
	}, {
		"id": 216,
		"category": "verticals",
		"content": "Comedy"
	}, {
		"id": 217,
		"category": "verticals",
		"content": "Education"
	}, {
		"id": 218,
		"category": "verticals",
		"content": "Family"
	}, {
		"id": 219,
		"category": "verticals",
		"content": "Fashion"
	}, {
		"id": 220,
		"category": "verticals",
		"content": "Fitness/Health"
	}, {
		"id": 221,
		"category": "verticals",
		"content": "Food"
	}, {
		"id": 222,
		"category": "verticals",
		"content": "Game Show"
	}, {
		"id": 223,
		"category": "verticals",
		"content": "How-To/DIY"
	}]
}
