{"total":207,"previous":null,"next":"https://staging.reelio.com/api/v3/notifications/?limit=10&offset=10","from":1,"to":10,"limit":10,"context":{"account":{"id":162621,"global_roles":["account-manager"],"class_name":"account","created":"2017-02-22T18:53:27.145735Z","modified":"2017-03-28T21:26:03.741566Z","name":"gabriel","slug":"gabriel-14","image":"https://reelio-asset.s3.amazonaws.com/TEST/1490736356093_gabriel-14.jpg","is_active":true,"deleted":null,"permissions":67}},"results":[{"id":15849,"conversation_id":166435,"redirect_context":{"conversation_id":166435,"campaigncreator_id":40525,"campaign_slug":"pokemon-pearls-campaign-3"},"sender":null,"read":false,"messageattachments":[],"tagline":"Pitch Sent","message_type":"success","body":"Pitch was successfully submitted from Rebecca Brand Recipes to Piplup.","sent_at":"2017-04-17T18:55:35.951026Z","reelio_model":{"id":166435,"class_name":"conversation","created":"2017-04-17T18:55:35.802353Z","modified":"2017-04-17T18:55:35.802374Z","name":"Piplup<->Rebecca Brand Recipes","slug":"piplup-rebecca-brand-recipes-2","image":null,"is_active":true,"deleted":null,"permissions":3}},{"id":15848,"conversation_id":166432,"redirect_context":{"conversation_id":166432,"campaigncreator_id":40524,"campaign_slug":"pokemon-pearls-campaign-3"},"sender":null,"read":false,"messageattachments":[],"tagline":"Pitch Sent","message_type":"success","body":"Pitch was successfully submitted from Daniella Penn to Piplup.","sent_at":"2017-04-17T18:55:00.687987Z","reelio_model":{"id":166432,"class_name":"conversation","created":"2017-04-17T18:55:00.546327Z","modified":"2017-04-17T18:55:00.546353Z","name":"Piplup<->Daniella Penn","slug":"piplup-daniella-penn-2","image":null,"is_active":true,"deleted":null,"permissions":3}},{"id":15819,"conversation_id":166387,"redirect_context":{"conversation_id":166387,"campaigncreator_id":40514,"campaign_slug":"pokemon-golds-campaign-3"},"sender":null,"read":false,"messageattachments":[],"tagline":"Offer Accepted","message_type":"success","body":"Steve Seagulls accepted the offer.","sent_at":"2017-04-13T18:46:34.395600Z","reelio_model":{"id":166387,"class_name":"conversation","created":"2017-04-13T18:39:42.556987Z","modified":"2017-04-13T18:39:42.557005Z","name":"Ho-Oh<->Steve Seagulls","slug":"ho-oh-steve-seagulls-2","image":null,"is_active":true,"deleted":null,"permissions":3}},{"id":15818,"conversation_id":166387,"redirect_context":{"conversation_id":166387,"campaigncreator_id":40514,"campaign_slug":"pokemon-golds-campaign-3"},"sender":null,"read":false,"messageattachments":[],"tagline":"New offer!","message_type":"success","body":"Quick, Pokemon Gold just sent you an offer! Respond now?","sent_at":"2017-04-13T18:46:31.243168Z","reelio_model":{"id":166387,"class_name":"conversation","created":"2017-04-13T18:39:42.556987Z","modified":"2017-04-13T18:39:42.557005Z","name":"Ho-Oh<->Steve Seagulls","slug":"ho-oh-steve-seagulls-2","image":null,"is_active":true,"deleted":null,"permissions":3}},{"id":15817,"conversation_id":166387,"redirect_context":{"conversation_id":166387,"campaigncreator_id":40514,"campaign_slug":"pokemon-golds-campaign-3"},"sender":null,"read":false,"messageattachments":[],"tagline":"Pitch Sent","message_type":"success","body":"Pitch was successfully submitted from Steve Seagulls to Ho-Oh.","sent_at":"2017-04-13T18:39:42.680477Z","reelio_model":{"id":166387,"class_name":"conversation","created":"2017-04-13T18:39:42.556987Z","modified":"2017-04-13T18:39:42.557005Z","name":"Ho-Oh<->Steve Seagulls","slug":"ho-oh-steve-seagulls-2","image":null,"is_active":true,"deleted":null,"permissions":3}},{"id":15815,"conversation_id":166172,"redirect_context":{"conversation_id":166172,"campaigncreator_id":39995,"campaign_slug":"pokemon-golds-campaign-3"},"sender":null,"read":false,"messageattachments":[],"tagline":"Edits requested...","message_type":"warning","body":"Almost there!  Pokemon Gold requested some edits to your video. Review now.","sent_at":"2017-04-13T18:25:47.459833Z","reelio_model":{"id":166172,"class_name":"conversation","created":"2017-04-10T18:47:09.339038Z","modified":"2017-04-10T18:47:09.339065Z","name":"Ho-Oh<->Pok\u00e9mon Next","slug":"ho-oh-pokemon-next-2","image":null,"is_active":true,"deleted":null,"permissions":3}},{"id":15805,"conversation_id":165942,"redirect_context":{"conversation_id":165942,"campaigncreator_id":40395,"campaign_slug":"seagulls-campaign"},"sender":null,"read":false,"messageattachments":[],"tagline":"Offer Accepted","message_type":"success","body":"LearningToBeFearless accepted the offer.","sent_at":"2017-04-12T18:57:55.487337Z","reelio_model":{"id":165942,"class_name":"conversation","created":"2017-04-04T22:11:23.530747Z","modified":"2017-04-04T22:11:23.530770Z","name":"Seagull's Campaign<->LearningToBeFearless","slug":"seagulls-campaign-learningtobefearless-2","image":null,"is_active":true,"deleted":null,"permissions":3}},{"id":15804,"conversation_id":165942,"redirect_context":{"conversation_id":165942,"campaigncreator_id":40395,"campaign_slug":"seagulls-campaign"},"sender":null,"read":false,"messageattachments":[],"tagline":"New offer!","message_type":"success","body":"Quick, Seagull just sent you an offer! Respond now?","sent_at":"2017-04-12T18:57:39.441387Z","reelio_model":{"id":165942,"class_name":"conversation","created":"2017-04-04T22:11:23.530747Z","modified":"2017-04-04T22:11:23.530770Z","name":"Seagull's Campaign<->LearningToBeFearless","slug":"seagulls-campaign-learningtobefearless-2","image":null,"is_active":true,"deleted":null,"permissions":3}},{"id":15803,"conversation_id":165942,"redirect_context":{"conversation_id":165942,"campaigncreator_id":40395,"campaign_slug":"seagulls-campaign"},"sender":null,"read":false,"messageattachments":[],"tagline":"Pitch Sent","message_type":"success","body":"Pitch was successfully submitted from LearningToBeFearless to Seagull's Campaign.","sent_at":"2017-04-12T18:57:19.594550Z","reelio_model":{"id":165942,"class_name":"conversation","created":"2017-04-04T22:11:23.530747Z","modified":"2017-04-04T22:11:23.530770Z","name":"Seagull's Campaign<->LearningToBeFearless","slug":"seagulls-campaign-learningtobefearless-2","image":null,"is_active":true,"deleted":null,"permissions":3}},{"id":15801,"conversation_id":166325,"redirect_context":{"conversation_id":166325,"campaigncreator_id":40386,"campaign_slug":"seagulls-campaign"},"sender":null,"read":false,"messageattachments":[],"tagline":"Edits requested...","message_type":"warning","body":"Almost there!  Seagull requested some edits to your video. Review now.","sent_at":"2017-04-12T18:54:14.667903Z","reelio_model":{"id":166325,"class_name":"conversation","created":"2017-04-10T22:16:43.678944Z","modified":"2017-04-10T22:16:43.678968Z","name":"Seagull's Campaign<->Erica Griffin","slug":"seagulls-campaign-erica-griffin-2","image":null,"is_active":true,"deleted":null,"permissions":3}}],"unread_count":166,"ordering_fields":[{"field":"id","label":"ID"},{"field":"created","label":"created"},{"field":"modified","label":"modified"},{"field":"reelio_model","label":"reelio model"},{"field":"tagline","label":"tagline"},{"field":"message_type","label":"Type"},{"field":"body","label":"body"},{"field":"sender","label":"sender"},{"field":"sent_at","label":"sent at"}]}
